<?xml version="1.0" encoding="utf-8"?>
<!-- Generator: Adobe Illustrator 19.1.0, SVG Export Plug-In . SVG Version: 6.00 Build 0)  -->
<svg version="1.1" id="Layer_1" xmlns="http://www.w3.org/2000/svg" xmlns:xlink="http://www.w3.org/1999/xlink" x="0px" y="0px"
	 viewBox="-269 191 100 100" style="enable-background:new -269 191 100 100;" xml:space="preserve">
<style type="text/css">
	.st0{fill:#FFFFFF;}
</style>
<g>
	<path class="st0" d="M-221.2,253.4c0-12.5,9.5-23,21.7-24.4c1.4-0.2,2.9-0.4,4.4-0.4c4.8,0.2,9,1.5,12.7,3.8c2-5.3,2-10.9-1.2-16.4
		c-3.5-5.8-10.1-9.4-17.6-9.4c-6.9,0-13.2,3-16.7,8.3l-3.3,4.6l-3-4.6c-3.5-5.2-9.8-8.3-16.7-8.3c-7.5,0-14.2,3.6-17.6,9.4
		c-7.6,12.7,2.3,25.3,14.3,36.9c4.9,4.9,17.3,15.7,23.2,20.6c1.5-1.2,3.4-2.9,5.6-4.8C-219.1,264.6-221.2,259.2-221.2,253.4z
		 M-209.8,274.1c-4.5,3.8-8.2,7-8.9,7.6l-2.5,2.2l-2.3-2.2c-3.7-3-20.3-17.2-26.3-23c-8.2-8-27.3-26.8-15.5-46.5
		c4.9-8.3,13.9-13.2,24.2-13.2c7.6,0,14.9,2.9,19.9,7.8c5-5.1,12.3-7.8,19.9-7.8c10.2,0,19.2,4.9,24.3,13.2c5.3,9,4.4,18,0.7,25.6
		c3.4,4.1,5.2,9.4,5.2,15c0,8.3-4.2,15.7-10.6,20l-0.1,0.1c-4.1,3.2-9.3,5-14.8,5C-201.5,278-206,276.6-209.8,274.1z M-196.2,271.4
		c10.2,0,18.5-8.3,18.5-18.5c0-10.1-8.2-18.4-18.4-18.5h-0.1c-10.1,0-18.5,8.3-18.5,18.5c0,10.1,8.2,18.4,18.3,18.5
		C-196.3,271.4-196.2,271.4-196.2,271.4z"/>
	<path class="st0" d="M-196.7,250.3v-1.6v-0.5v-1.5c-1,0.2-1.6,0.8-1.6,2C-198.3,249.7-197.6,250.2-196.7,250.3z M-193.3,257.8
		c0-0.4-0.1-0.8-0.2-1c-0.2-0.5-0.8-0.9-1.4-1.1v4c0.7,0,1.2-0.4,1.4-1.1C-193.3,258.4-193.3,258-193.3,257.8z M-196.7,242.7v-1.3
		c0-0.5,0.3-0.8,0.8-0.8c0.7,0,0.8,0.3,0.8,0.8v1.3c1.9,0,5.2,0.7,5.2,3c0,1.1-0.9,2.1-2,2.1c-1.1,0-2-1.1-3.3-1.1v4
		c3.3,1,6.6,2.4,6.6,6.4c0,4.6-3.7,6.6-6.6,6.9v1.3c0,0.4-0.3,0.8-0.8,0.8c-0.7,0-0.8-0.3-0.8-0.8v-1.1c-2-0.2-6.6-0.7-6.6-3.4
		c0-1.3,1-2.4,2.1-2.4c1,0,2.4,1.3,4.6,1.3v-4.6c-4.9-1.4-6.5-3.3-6.5-5.9C-203.2,245.5-200.3,243-196.7,242.7z"/>
	<path class="st0" d="M-197.4,248.2v0.5c0,0,0-0.1,0-0.2C-197.5,248.5-197.5,248.3-197.4,248.2z"/>
</g>
</svg>
