<?xml version="1.0" encoding="utf-8"?>
<!-- Generator: Adobe Illustrator 19.1.0, SVG Export Plug-In . SVG Version: 6.00 Build 0)  -->
<svg version="1.1" id="Layer_1" xmlns="http://www.w3.org/2000/svg" xmlns:xlink="http://www.w3.org/1999/xlink" x="0px" y="0px"
	 viewBox="76 -66 189.8 84.5" style="enable-background:new 76 -66 189.8 84.5;" xml:space="preserve">
<style type="text/css">
	.st0{fill:#FFFFFF;}
</style>
<g>
	<path class="st0" d="M79.6,11.1H77V9h7.6v2.1H82v6.6h-2.4V11.1z"/>
	<path class="st0" d="M87,9h2.4v3.3h3.1V9h2.4v8.7h-2.4v-3.3h-3.1v3.3H87V9z"/>
	<path class="st0" d="M97.4,9h7v2.1h-4.6v1.3h4.2v1.9h-4.2v1.4h4.7v2.1h-7.1V9z"/>
	<path class="st0" d="M107,9h4.1c1.3,0,2.3,0.3,2.8,0.9c0.5,0.5,0.8,1.2,0.8,2l0,0c0,1.3-0.7,2.2-1.8,2.7l2.1,3h-2.8l-1.8-2.6l0,0
		h-1v2.6H107V9z M111,13.1c0.8,0,1.3-0.4,1.3-1l0,0c0-0.7-0.5-1-1.3-1h-1.6v2.1h1.6V13.1z"/>
	<path class="st0" d="M117.2,9h7v2.1h-4.6v1.3h4.2v1.9h-4.2v1.4h4.7v2.1h-7.1V9z"/>
	<path class="st0" d="M126.2,12.5c0.8-0.1,1.3-0.5,1.2-1.2h-0.9V8.9h2.4v2c0,1.8-1,2.5-2.5,2.5L126.2,12.5z"/>
	<path class="st0" d="M129.8,16.4l1.3-1.6c0.9,0.7,1.8,1,2.8,1c0.6,0,1-0.2,1-0.6l0,0c0-0.4-0.3-0.6-1.5-0.8
		c-1.9-0.4-3.3-0.9-3.3-2.7l0,0c0-1.6,1.3-2.8,3.4-2.8c1.5,0,2.6,0.4,3.6,1.2l-1.1,1.6c-0.8-0.6-1.7-0.9-2.4-0.9
		c-0.6,0-0.9,0.2-0.9,0.6l0,0c0,0.4,0.3,0.6,1.5,0.8c2,0.4,3.2,1.1,3.2,2.7l0,0c0,1.8-1.4,2.8-3.5,2.8
		C132.4,17.8,130.9,17.3,129.8,16.4z"/>
	<path class="st0" d="M144.5,9h2.5l2.1,3.4l2.1-3.4h2.5v8.7h-2.4v-5l-2.2,3.4l0,0l-2.2-3.4v5h-2.4V9z"/>
	<path class="st0" d="M155.5,13.3L155.5,13.3c0-2.5,2-4.6,4.7-4.6s4.7,2,4.7,4.5l0,0c0,2.5-2,4.5-4.7,4.5S155.5,15.8,155.5,13.3z
		 M162.4,13.3L162.4,13.3c0-1.3-0.9-2.4-2.2-2.4c-1.3,0-2.2,1.1-2.2,2.3l0,0c0,1.3,0.9,2.4,2.2,2.4
		C161.6,15.7,162.4,14.6,162.4,13.3z"/>
	<path class="st0" d="M166.8,9h4.1c1.3,0,2.3,0.3,2.8,0.9c0.5,0.5,0.8,1.2,0.8,2l0,0c0,1.3-0.7,2.2-1.8,2.7l2.1,3H172l-1.8-2.6l0,0
		h-1v2.6h-2.4L166.8,9L166.8,9z M170.8,13.1c0.8,0,1.3-0.4,1.3-1l0,0c0-0.7-0.5-1-1.3-1h-1.6v2.1h1.6V13.1z"/>
	<path class="st0" d="M177,9h7v2.1h-4.6v1.3h4.2v1.9h-4.2v1.4h4.7v2.1H177V9z"/>
	<path class="st0" d="M193.4,11.1h-2.6V9h7.6v2.1h-2.6v6.6h-2.4V11.1z"/>
	<path class="st0" d="M200,13.3L200,13.3c0-2.5,2-4.6,4.7-4.6s4.7,2,4.7,4.5l0,0c0,2.5-2,4.5-4.7,4.5S200,15.8,200,13.3z M207,13.3
		L207,13.3c0-1.3-0.9-2.4-2.2-2.4c-1.3,0-2.2,1.1-2.2,2.3l0,0c0,1.3,0.9,2.4,2.2,2.4C206.1,15.7,207,14.6,207,13.3z"/>
	<path class="st0" d="M219.1,14.4L215.8,9h2.7l1.8,3.2l1.8-3.2h2.7l-3.3,5.4v3.3h-2.4L219.1,14.4L219.1,14.4z"/>
	<path class="st0" d="M225.7,13.3L225.7,13.3c0-2.5,2-4.6,4.7-4.6s4.7,2,4.7,4.5l0,0c0,2.5-2,4.5-4.7,4.5S225.7,15.8,225.7,13.3z
		 M232.6,13.3L232.6,13.3c0-1.3-0.9-2.4-2.2-2.4c-1.3,0-2.2,1.1-2.2,2.3l0,0c0,1.3,0.9,2.4,2.2,2.4
		C231.7,15.7,232.6,14.6,232.6,13.3z"/>
	<path class="st0" d="M237.1,13.8V8.9h2.5v4.8c0,1.3,0.6,1.9,1.6,1.9s1.6-0.6,1.6-1.8V8.9h2.5v4.8c0,2.8-1.6,4-4.1,4
		S237.1,16.6,237.1,13.8z"/>
	<path class="st0" d="M250,11.1h-2.6V9h7.6v2.1h-2.6v6.6H250V11.1z"/>
	<path class="st0" d="M257.3,9h2.4v3.3h3.1V9h2.4v8.7h-2.4v-3.3h-3.1v3.3h-2.4V9z"/>
</g>
<g>
	<path class="st0" d="M100.3-3.5C86.3-3.5,76-13.8,76-26.8V-27c0-12.9,10.4-23.5,24.5-23.5c14,0,24.3,10.3,24.3,23.3v0.2
		C124.8-14,114.4-3.5,100.3-3.5z M112.2-27c0-6.6-4.8-12.4-11.9-12.4c-7.3,0-11.7,5.6-11.7,12.3v0.2c0,6.6,4.8,12.4,11.9,12.4
		c7.3,0,11.7-5.6,11.7-12.3V-27z"/>
	<path class="st0" d="M155.3-4.5v-4.9c-3.1,3.4-7.4,5.7-13.6,5.7c-8.5,0-15.5-4.9-15.5-13.8v-0.2c0-9.8,7.5-14.4,18.2-14.4
		c4.5,0,7.8,0.8,11,1.9V-31c0-5.3-3.3-8.2-9.7-8.2c-4.9,0-8.3,0.9-12.4,2.4l-3.2-9.8c5-2.2,9.8-3.6,17.5-3.6
		c14,0,20.1,7.2,20.1,19.4v26.2L155.3-4.5L155.3-4.5z M155.6-22.7c-2.2-1-5-1.7-8.2-1.7c-5.5,0-8.8,2.2-8.8,6.2v0.2
		c0,3.4,2.9,5.5,7,5.5c6,0,10-3.3,10-7.9V-22.7z"/>
	<path class="st0" d="M189.8-3.7c-6.3,0-13.4-2.1-19.3-6.8l5.5-8.4c4.9,3.5,10,5.4,14.2,5.4c3.7,0,5.4-1.3,5.4-3.4v-0.2
		c0-2.8-4.4-3.7-9.3-5.2c-6.3-1.9-13.5-4.8-13.5-13.5V-36c0-9.2,7.4-14.3,16.5-14.3c5.7,0,11.9,1.9,16.8,5.2l-4.9,8.8
		c-4.5-2.6-8.9-4.2-12.2-4.2c-3.1,0-4.7,1.3-4.7,3.1v0.2c0,2.5,4.3,3.7,9.2,5.4c6.3,2.1,13.6,5.1,13.6,13.4v0.2
		C207.1-8.2,199.6-3.7,189.8-3.7z"/>
	<path class="st0" d="M211.7-54.6V-66h13.5v11.4H211.7z M212.1-4.5v-45.1h12.8v45.1H212.1z"/>
	<path class="st0" d="M247.8-3.7c-6.3,0-13.4-2.1-19.3-6.8l5.5-8.4c4.9,3.5,10,5.4,14.2,5.4c3.7,0,5.4-1.3,5.4-3.4v-0.2
		c0-2.8-4.4-3.7-9.3-5.2c-6.3-1.9-13.5-4.8-13.5-13.5V-36c0-9.2,7.4-14.3,16.5-14.3c5.7,0,11.9,1.9,16.8,5.2l-4.9,8.8
		c-4.5-2.6-8.9-4.2-12.2-4.2c-3.1,0-4.7,1.3-4.7,3.1v0.2c0,2.5,4.3,3.7,9.2,5.4c6.3,2.1,13.6,5.1,13.6,13.4v0.2
		C265-8.2,257.5-3.7,247.8-3.7z"/>
</g>
</svg>
